{
	"company": {
		"name": "Learn",
		"logo": {
			"url": "../common/img/logo.png"
		}
	},
	"menu": [{
		"title": "Navigation here",
		"link": "#"
	}, {
		"title": "About us",
		"link": "#"
	}],
	"banner": {
		"url": "../common/img/banner.jpg",
		"description": "Learn - Howdy good looking"
	},
	"content": [{
		"title": "Our latest work",
		"description": "<p>Lorem ipsum dolor sit amet, consectetur adipiscing elit. Aliquam quis sem in purus facilisis adipiscing at vitae sapien. Maecenas eget metus turpis. Integer ac molestie mauris. Aenean id libero eget ante dignissim faucibus.</p><p>Morbi sit amet nunc et ante feugiat blandit id aliquam risus. Nulla mattis auctor mi sit amet interdum. Nam consequat, ipsum non tincidunt tincidunt, massa mi tincidunt augue, in elementum lectus sem in libero.</p><p>Morbi feugiat est dui, quis scelerisque ipsum dictum quis. Fusce adipiscing est sodales aliquet vulputate. Etiam eget risus at purus fermentum mattis vitae eu sem. Maecenas tincidunt sapien in tortor adipiscing lacinia. Sed velit odio, pulvinar sagittis diam id, feugiat sodales lacus. Quisque magna nisl, aliquet id laoreet ut, placerat et felis. Suspendisse aliquet ullamcorper purus, luctus faucibus velit feugiat sed. Aenean interdum, elit ut dictum convallis, dolor arcu pulvinar neque, et congue elit nisl quis tellus. Aliquam auctor libero nec purus facilisis, sit amet fermentum metus lacinia.</p>"
	}, {
		"title": "About us",
		"description": "<p>Lorem ipsum dolor sit amet, consectetur adipiscing elit. Aliquam quis sem in purus facilisis adipiscing at vitae sapien. Maecenas eget metus turpis. Integer ac molestie mauris. Aenean id libero eget ante dignissim faucibus.</p><p>Morbi feugiat est dui, quis scelerisque ipsum dictum quis. Fusce adipiscing est sodales aliquet vulputate. Etiam eget risus at purus fermentum mattis vitae eu sem. Maecenas tincidunt sapien in tortor adipiscing lacinia. Sed velit odio, pulvinar sagittis diam id, feugiat sodales lacus. Quisque magna nisl, aliquet id laoreet ut, placerat et felis. Suspendisse aliquet ullamcorper purus, luctus faucibus velit feugiat sed. Aenean interdum, elit ut dictum convallis, dolor arcu pulvinar neque, et congue elit nisl quis tellus. Aliquam auctor libero nec purus facilisis, sit amet fermentum metus lacinia.</p>"
	}],
	"gallery": [{
		"url": "../common/img/thumb1.jpg",
		"description": "Brick and Mortar-Brick and Mortar-0003"
	}, {
		"url": "../common/img/thumb2.jpg",
		"description": "Brick and Mortar-Brick and Mortar-0008"
	}, {
		"url": "../common/img/thumb3.jpg",
		"description": "Brick and Mortar-Brick and Mortar-0005"
	}]
}